"Top ","Child 1","Child 2","Child 3","Child 4","hybris PIM Label","Public web Label","Sorting","Multi Select","Searchable","Facet","Internal only","Translated Attribute Label","Translated Attribute Value","Range","Populated by SAP","Required","Data  Type","UI Field Type","NOTES","Waters Classification 1.0 attribute","Hybris product attribute"
" "," "," "," "," "," "," "," "," "," "," "," "," "," "," "," "," "," "," "," "," "," "
" "," "," "," "," "," "," "," "," "," "," "," "," "," "," "," "," "," "," "," "," "," "
"Products"," "," "," "," "," "," "," "," "," "," "," "," "," "," "," "," "," "," "," "," "," "
" "," "," "," "," ","SAP Hierarchy ","SAP Hierarchy ","1"," "," "," ","Y"," "," "," ","Y"," ","Characters","Text"," ","Product.sapHierarchy"," "
" "," "," "," "," ","Batch management indicator "," ","2"," "," "," ","Y"," "," "," ","Y"," ","Characters","Text"," ","Product.batchManaged"," "
" "," "," "," "," ","Remaining Shelf Life"," ","3"," "," "," ","Y"," "," "," ","Y"," ","Characters","Text"," ","Product.remainingShelfLife"," "
" "," "," "," "," ","Container Requirement"," ","4"," "," "," ","Y"," "," "," ","Y"," ","Characters","Text"," ","Product.containerRequirement"," "
" "," "," "," "," ","Hazardardous material number"," ","5"," "," "," ","Y"," "," "," ","Y"," ","Characters","Text"," ","Product.harzardMaterialNumber"," "
" "," "," "," "," ","Hazardardous material text"," ","6"," "," "," ","Y"," "," "," ","Y"," ","Characters","Text"," ","Product.hazardMaterialText"," "
" "," "," "," "," ","Company","Company","10","Y","Y"," "," ","Y"," "," "," ","Y","Characters","Multiselect","Company Attribute potential could be identified by SAP via product hierarchy.","Product.company"," "
" "," "," "," "," ","Weight"," ","12"," "," "," ","Y"," "," "," ","Y"," ","Characters","Text"," ","Product.weight"," "
" "," "," "," "," ","Weight UOM"," ","15"," "," "," ","Y"," "," "," ","Y"," ","Characters","Text"," ","Product.weightUOM"," "
" "," "," "," "," ","Harmonization Code"," ","16"," "," "," ","Y"," "," "," ","Y"," ","Characters","Text"," ","Product.harmonizationCode"," "
" "," "," "," "," ","UNSPSC"," ","17"," "," "," ","Y"," "," "," ","Y"," ","Characters","Text"," ","Product.unspsc"," "
" "," "," "," "," ","DG Tech Name"," ","19"," "," "," ","Y"," "," "," ","Y"," ","Characters","Text"," ","Product.dgTechName"," "
" "," "," "," "," ","Application","Application","20","Y","Y","Y"," ","Y","Y"," "," "," ","Characters","Multiselect"," ","Product.application"," "
" "," "," "," "," ","Brand","Brand","30","Y","Y","Y"," ","Y"," "," "," "," ","Characters","Multiselect"," ","Product.brand"," "
" "," "," "," "," ","Business","Business","-"," "," "," ","Y","Y"," "," "," ","Y","Characters","List","See Notes","Product.business"," "
" "," "," "," "," ","Product Family","Product Family","-"," "," "," ","Y","Y"," "," "," ","Y","Characters","List"," ","Product.productFamily"," "
" "," "," "," "," ","Product Type","Product Type","-"," "," "," ","Y"," "," "," "," "," ","Characters","List","See Notes"," ","product.supercategories (classification category assigned)"
" "," "," "," "," ","SAP Product Title"," ","-"," "," "," ","Y","Y"," "," ","Y"," ","Characters","Read Only"," "," ","product.sapProductTitle"
" "," "," "," "," ","Manual Product Title"," ","-"," "," "," "," ","Y"," "," "," "," ","Characters","Input Field"," "," ","WatersProduct.manualName"
" "," "," "," "," ","Automatic Title"," ","-"," ","Y"," "," ","Y"," "," "," "," ","Characters","Text","The Automatic Title will only be used for some product families. All others will use the Manual Title.Automatic titles will work for a high percentage of parts within product families we enable it with.  For the parts that it does not work we need the ability to overrule the automatic title for product families and instead use the manual title. Automatic titles are generated using English attribute values only.  Would not use translated values to generate a title. "," ","WatersProduct.automaticName"
" "," "," "," "," ","Features"," ","-"," "," "," "," ","Y","Y"," "," "," ","Characters","Text"," "," "," "
" "," "," "," "," ","Long Description"," ","-"," "," "," "," ","Y","Y"," "," ","N","Characters","Text"," "," ","product.description"
" "," "," "," "," ","SAP Product Description"," ","-"," "," "," ","Y","Y"," "," ","Y"," ","Characters","Read Only","See Notes","Product.sapDescription"," "
" "," "," "," "," ","Related Product 1"," ","-"," "," "," "," ","Y"," "," "," "," ","Characters","(SKU #)","See Notes"," ","product.productReferences?"
" "," "," "," "," ","Related Product 2"," ","-"," "," "," "," ","Y"," "," "," "," ","Characters"," "," "," ","product.productReferences?"
" "," "," "," "," ","Related Product 3"," ","-"," "," "," "," ","Y"," "," "," "," ","Characters"," "," "," ","product.productReferences?"
" "," "," "," "," ","Related Product 4"," ","-"," "," "," "," ","Y"," "," "," "," ","Characters"," "," "," ","product.productReferences?"
" "," "," "," "," ","Related Product 5"," ","-"," "," "," "," ","Y"," "," "," "," ","Characters"," "," "," ","product.productReferences?"
" "," "," "," "," ","Related Product 6"," ","-"," "," "," "," ","Y"," "," "," "," ","Characters"," "," "," ","product.productReferences?"
" "," "," "," "," ","Custom URLs 1"," "," "," "," "," "," ","Y"," "," "," "," "," ","Text","See Notes"," "," "
" "," "," "," "," ","Custom URLs 2"," "," "," "," "," "," ","Y"," "," "," "," "," ","Text"," "," "," "
" "," "," "," "," ","Custom URLs 3"," "," "," "," "," "," ","Y"," "," "," "," "," ","Text"," "," "," "
" "," "," "," "," ","Custom URLs 4"," "," "," "," "," "," ","Y"," "," "," "," "," ","Text"," "," "," "
" "," "," "," "," ","Custom URLs 5"," "," "," "," "," "," ","Y"," "," "," "," "," ","Text"," "," "," "
" "," "," "," "," ","Custom URLs 6"," "," "," "," "," "," ","Y"," "," "," "," "," ","Text"," "," "," "
" "," "," "," "," ","Keywords"," ","-"," "," "," ","Y","Y"," "," "," ","Y","Characters","Text"," "," ","Product.keywords"
" "," "," "," "," ","Jaggaer Category"," "," "," "," "," ","Y","Y"," "," "," "," ","Characters","List"," ","Product.jaggaerCategory"," "
" "," "," "," "," ","Units per Package"," "," "," "," "," "," "," "," "," "," "," "," "," "," "," "," "
" "," "," "," "," ","Units per Package UOM"," "," "," "," "," "," "," "," "," "," "," "," "," "," "," "," "
" ","Consumables And Spares"," "," "," "," "," "," "," "," "," "," "," "," "," "," "," "," "," "," "," "," "
" "," "," "," "," ","Units per Package","Units per Package","110"," "," "," "," ","Y"," "," "," "," ","Interger","List"," ","ConsumableAndSpare.consumablePiecesPerPackage"," "
" "," "," "," "," ","Units per Package UOM","Units per Package UOM","111"," "," "," "," ","Y","Y"," "," "," ","Characters","List"," ","ConsumableAndSpare.consumablePiecesPerPackageUom"," "
" "," "," "," "," ","Cold Chain Shipping","Cold Chain Shipping","150"," "," "," "," ","Y"," "," ","Y","Y","Boolean","Read Only Text","There are some attributes that only have one value.Example: Attribute: Standards QuantitativeValue: YesIf Yes is selected then that value will show.There is no “No” value.  If Value is left blank then this attribute would not show on website. ","ConsumableAndSpare.consumableColdChainShipping"," "
" "," "," "," "," ","Sales Status","Sales Status","153"," "," "," "," "," "," "," ","Y","Y","Characters","Read Only Text","This is coming from the product status feed"," ","product.salesStatus"
" "," "," "," "," ","Hazardous","Hazardous","160"," "," "," "," ","Y"," "," ","Y","Y","Boolean","Read Only Text","There are some attributes that only have one value.Example: Attribute: Standards QuantitativeValue: YesIf Yes is selected then that value will show.There is no “No” value.  If Value is left blank then this attribute would not show on website. ","ConsumableAndSpare.consumableHazardous"," "
" "," ","Column"," "," "," "," "," "," "," "," "," "," "," "," "," "," "," "," "," "," "," "
" "," "," "," "," ","Column Carbon Load","Carbon Load","210"," "," "," "," ","Y"," "," "," "," ","Interger","List"," ","Column.columnPercentCarbonLoad"," "
" "," "," "," "," ","Column Carbon Load UOM","%","211"," "," "," "," ","Y"," "," "," "," ","Characters","List"," ","Column.columnPercentCarbonLoadUom"," "
" "," "," "," "," ","Column Bonding Technology","Bonding Technology","220"," ","Y","Y"," ","Y"," "," "," "," ","Characters","List","Column Bonding Technology is a subset of Column Chemistry Example:               C18 is a value for Column Chemistry                                    T3 is a value for Column Bonding Technology                                    T3 is a “flavor” of C18.                                     Not all columns have a Bonding Technology User would select a value for Column Chemistry.  User may select a value for Column Bonding Technology.   In automatic naming logic Bonding Technology will replace the Column Chemistry value. Incorrect:             CORTECS C18 T3 Column, 120Å, 2.7 µm, 4.6 mm X 50 mm, 3/pkgCorrect:                 CORTECS T3 Column, 120Å, 2.7 µm, 4.6 mm X 50 mm, 3/pkg ","Column.columnBondingTechnology"," "
" "," "," "," "," ","Column Chemistry","Chemistry","230"," ","Y","Y"," ","Y"," "," "," "," ","Characters","List"," ","Column.columnChemistry"," "
" "," "," "," "," ","Column Endcapped","Endcapped","240"," "," "," "," ","Y","Y"," "," "," ","Characters","List","No list provided","Column.columnEndcapped"," "
" "," "," "," "," ","Column Endfitting Type","Endfitting Type","250"," "," "," "," ","Y","Y"," "," "," ","Characters","List"," ","Column.columnEndfittingType"," "
" "," "," "," "," ","Column Format","Format","260"," "," ","Y"," ","Y","Y"," "," "," ","Characters","List"," ","Column.columnFormat"," "
" "," "," "," "," ","Column Inner Diameter","Inner Diameter","270"," ","Y"," "," ","Y"," "," "," "," ","Interger","List"," ","Column.columnInnerDiameter"," "
" "," "," "," "," ","Column Inner Diameter UOM","Inner Diameter","271"," ","Y","Y"," ","Y"," "," "," "," ","Characters","List"," ","Column.columnInnerDiameterUom"," "
" "," "," "," "," ","Column Ion Exchange Capacity","Ion Exchange Capacity","280"," "," "," "," ","Y"," "," "," "," ","Characters","List"," ","Column.columnIonExchangeCapacity"," "
" "," "," "," "," ","Column Ion Exchange Capacity UOM","Ion Exchange Capacity UOM"," "," ","Y","Y"," ","Y"," "," "," "," ","Characters","List"," ","Column.columnIonExchangeCapacityUom"," "
" "," "," "," "," ","Column Length","Length","290"," ","Y","Y"," ","Y"," "," "," "," ","Interger","List"," ","Column.columnLength"," "
" "," "," "," "," ","Column Length UOM","Length","291"," "," "," "," ","Y"," "," "," "," ","Characters","List"," ","Column.columnLengthUom"," "
" "," "," "," "," ","Column Separation Mode","Separation Mode","310"," ","Y","Y"," ","Y","Y"," "," "," ","Characters","List"," ","Column.columnSeparationMode"," "
" "," "," "," "," ","Column Molecular Weight Range Min","Molecular Weight Range","320"," "," "," "," ","Y"," ","Y"," "," ","Interger","List","User will enter a Min and a Max Molecular Weight Range.  Front end needs to see listed as a concatenated value.  Furthermore we need to abbreviate the values so make them more human readable. Example:Molecular Weight Min: 1500Molecular Weight Max: 100000 We need to create a table to convert these values as shown below.1500 = 1.5K100000 = 100K4000000 = 4M Customer will see:  1.5K – 100K","Column.columnMolecularWeightRangeMin"," "
" "," "," "," "," ","Column Molecular Weight Range Max","Molecular Weight Range","321"," "," "," "," ","Y"," ","Y"," "," ","Characters","List","User will enter a Min and a Max Molecular Weight Range.  Front end needs to see listed as a concatenated value.  Furthermore we need to abbreviate the values so make them more human readable. Example:Molecular Weight Min: 1500Molecular Weight Max: 100000 We need to create a table to convert these values as shown below.1500 = 1.5K100000 = 100K4000000 = 4M Customer will see:  1.5K – 100K","Column.columnMolecularWeightRangeMax"," "
" "," "," "," "," ","Column Particle Shape","Particle Shape","330"," "," "," "," ","Y","Y"," "," "," ","Characters","List"," ","Column.columnParticleShape"," "
" "," "," "," "," ","Column Particle Size","Particle Size","340"," ","Y","Y"," ","Y"," "," "," "," ","Interger","List"," ","Column.columnParticleSize"," "
" "," "," "," "," ","Column Particle Size UOM","Particle Size","341"," "," "," "," ","Y","Y"," "," "," ","Characters","List"," ","Column.columnParticleSizeUom"," "
" "," "," "," "," ","Column Particle Substrate","Particle Substrate","350"," ","Y","Y"," ","Y","Y"," "," "," ","Characters","List"," ","Column.columnParticleSubstrate"," "
" "," "," "," "," ","Column Pore Size","Pore Size","360"," ","Y","Y"," ","Y"," "," "," "," ","Interger","List"," ","Column.columnPoreSize"," "
" "," "," "," "," ","Column Pore Size UOM","Pore Size","361"," "," "," "," ","Y"," "," "," "," ","Characters","List"," ","Column.columnPoseSizeUom"," "
" "," "," "," "," ","Column QC Tested","QC Tested","370","Y","Y","Y"," ","Y","Y"," "," "," ","Characters","Multiselect"," ","Column.columnQCTested"," "
" "," "," "," "," ","Column Silanol Activity","Silanol Activity","380"," "," "," "," ","Y","Y"," "," "," ","Characters","List"," ","Column.columnSilanolActivity"," "
" "," "," "," "," ","Column Packing Solvent","Packing Solvent","390"," "," "," "," ","Y"," "," "," "," ","Characters","List"," ","Column.columnPackingSolvent"," "
" "," "," "," "," ","Column Surface Area","Surface Area","410"," "," "," "," ","Y"," "," "," "," ","Interger","List"," ","Column.columnSurfaceArea"," "
" "," "," "," "," ","Column System","System","420","Y","Y","Y"," ","Y"," "," "," "," ","Characters","Multiselect"," ","Column.columnSystem"," "
" "," "," "," "," ","Column Particle Technology","Particle Technology","430"," ","Y","Y"," ","Y","Y"," "," "," ","Characters","List"," ","Column.columnParticleTechnology"," "
" "," "," "," "," ","Column USP Classification","USP Classification","440"," ","Y","Y"," ","Y"," "," "," "," ","Characters","List"," ","Column.columnUSPClassification"," "
" "," "," "," "," ","Column pH Range Min","pH Range","450"," "," "," "," ","Y"," ","Y"," "," ","Interger","List","User will enter a Min and a Max pH range.  Front end needs to see result listed as a concatenated value. Example: pH Min = 2pH Max = 7pH UOM = pH Customer sees 2 – 7 pH ","Column.columnpHRangeMin"," "
" "," "," "," "," ","Column pH Range Max","pH Range","451"," "," "," "," ","Y"," ","Y"," "," ","Interger","List","User will enter a Min and a Max pH range.  Front end needs to see result listed as a concatenated value. Example: pH Min = 2pH Max = 7pH UOM = pH Customer sees 2 – 7 pH ","Column.columnpHRangeMax"," "
" "," "," "," "," ","Column pH Range UOM","pH Range","452"," "," "," "," ","Y"," "," "," "," ","Characters","List","User will enter a Min and a Max pH range.  Front end needs to see result listed as a concatenated value. Example: pH Min = 2pH Max = 7pH UOM = pH Customer sees 2 – 7 pH ","Column.columnpHRangeUom"," "
" "," "," "," "," ","Column Technique","Technique","460","Y","Y","Y"," ","Y"," "," "," "," ","Characters","Multiselect"," ","Column.columnTechnique"," "
" "," "," "," "," ","Column Temperature Limits","Temperature Limits","470"," "," "," "," ","Y","Y"," "," "," ","Characters","List"," ","Column.columnTemperatureLimits"," "
" "," "," "," "," ","Column Maximum Pressure","Maximum Pressure","480"," "," "," "," ","Y","Y"," "," "," ","Characters","List"," ","Column.columnMaximumPressure"," "
" "," "," "," "," ","Column eCord","eCord","490"," "," "," "," ","Y","Y"," "," "," ","Boolean","List","There are some attributes that only have one value.Example: Attribute: Standards QuantitativeValue: Yes If Yes is selected then that value will show.There is no “No” value.  If Value is left blank then this attribute would not show on website. ","Column.columneCord"," "
" "," "," "," "," "," "," "," "," "," "," "," "," "," "," "," "," "," "," "," "," "," "
" "," ","Column Kits"," "," "," "," "," "," "," "," "," "," "," "," "," "," "," "," "," "," "," "
" "," "," "," "," ","Column Kits Type","Type","510"," ","Y","Y"," ","Y","Y"," "," ","N","Characters","List","Missing list","ColumnKit.columnKitType"," "
" "," "," "," "," "," "," "," "," "," "," "," "," "," "," "," "," "," "," "," "," "," "
" "," "," "," "," "," "," "," "," "," "," "," "," "," "," "," "," "," "," "," "," "," "
" "," ","Column Accessories"," "," "," "," "," "," "," "," "," "," "," "," "," "," "," "," "," "," "," "
" "," "," "," "," ","Column Accessories Type","Type","610"," ","Y","Y"," ","Y","Y"," "," "," ","Characters","List","Missing list","ColumnAccessory.columnAccessoryType"," "
" "," "," "," "," "," "," "," "," "," "," "," "," "," "," "," "," "," "," "," "," "," "
" "," ","Bulk"," "," "," "," "," "," "," "," "," "," "," "," "," "," "," "," "," "," "," "
" "," "," "," "," ","Bulk Carbon Load","Carbon Load","710"," "," "," "," ","Y"," "," "," "," ","Interger","List"," ","Bulk.bulkCarbonLoad"," "
" "," "," "," "," ","Bulk Carbon Load UOM","Bulk Carbon Load UOM","711"," "," "," "," ","Y"," "," "," "," ","Characters","List"," ","Bulk.bulkCarbonLoadUom"," "
" "," "," "," "," ","Bulk Mass"," Mass","720"," ","Y","Y"," ","Y","Y"," "," "," ","Interger","List"," ","Bulk.bulkMass"," "
" "," "," "," "," ","Bulk Mass UOM","Bulk Mass UOM","721"," "," "," "," ","Y"," "," "," "," ","Characters","List"," ","Bulk.bulkMassUom"," "
" "," "," "," "," ","Bulk Bonding Technology"," Bonding Technology","730"," ","Y","Y"," ","Y"," "," "," "," ","Characters","List","Column Bonding Technology is a subset of Column Chemistry Example:               C18 is a value for Column Chemistry                                    T3 is a value for Column Bonding Technology                                    T3 is a “flavor” of C18.                                     Not all columns have a Bonding Technology User would select a value for Column Chemistry.  User may select a value for Column Bonding Technology.   In automatic naming logic Bonding Technology will replace the Column Chemistry value. Incorrect:             CORTECS C18 T3 Column, 120Å, 2.7 µm, 4.6 mm X 50 mm, 3/pkgCorrect:                 CORTECS T3 Column, 120Å, 2.7 µm, 4.6 mm X 50 mm, 3/pkg ","Bulk.bulkBondingTechnology"," "
" "," "," "," "," ","Bulk Chemistry"," Chemistry","740"," "," "," "," ","Y"," "," "," "," ","Characters","List"," ","Bulk.bulkChemistry"," "
" "," "," "," "," ","Bulk Endcapped"," Endcapped","750"," "," "," "," ","Y","Y"," "," "," ","Characters","List"," ","Bulk.bulkEndcapped"," "
" "," "," "," "," ","Bulk Ion Exchange Capacity"," Ion Exchange Capacity","760"," "," "," "," ","Y"," "," "," "," ","Characters","List"," ","Bulk.bulkIonExchangeCapacity"," "
" "," "," "," "," ","Bulk Ion Exchange Capacity UOM"," ","761"," ","Y","Y"," ","Y"," "," "," "," ","Characters","List"," ","Bulk.bulkIonExchangeCapacityUom"," "
" "," "," "," "," ","Bulk Separation Mode"," Separation Mode","770"," "," "," "," ","Y","Y"," "," "," ","Characters","List"," ","Bulk.bulkSeparationMode"," "
" "," "," "," "," ","Bulk Molecular Weight Range Min"," Molecular Weight Range","780"," ","Y","Y"," ","Y"," ","Y"," "," ","Interger","List","User will enter a Min and a Max Molecular Weight Range.  Front end needs to see listed as a concatenated value.  Furthermore we need to abbreviate the values so make them more human readable. Example:Molecular Weight Min: 1500Molecular Weight Max: 100000 We need to create a table to convert these values as shown below.1500 = 1.5K100000 = 100K4000000 = 4M Customer will see:  1.5K – 100K","Bulk.bulkMolecularWeightRangeMin"," "
" "," "," "," "," ","Bulk Molecular Weight Range Max"," ","781"," ","Y","Y"," ","Y"," ","Y"," "," ","Interger","List","User will enter a Min and a Max Molecular Weight Range.  Front end needs to see listed as a concatenated value.  Furthermore we need to abbreviate the values so make them more human readable. Example:Molecular Weight Min: 1500Molecular Weight Max: 100000 We need to create a table to convert these values as shown below.1500 = 1.5K100000 = 100K4000000 = 4M Customer will see:  1.5K – 100K","Bulk.bulkMolecularWeightRangeMax"," "
" "," "," "," "," ","Bulk Particle Shape"," Particle Shape","790"," "," "," "," ","Y","Y"," "," "," ","Characters","List"," ","Bulk.bulkParticleShape"," "
" "," "," "," "," ","Bulk Particle Size"," Particle Size","810"," "," "," "," ","Y"," "," "," "," ","Interger","List"," ","Bulk.bulkParticleSize"," "
" "," "," "," "," ","Bulk Particle Size UOM"," ","811"," "," "," "," ","Y"," "," "," "," ","Characters","List"," ","Bulk.bulkParticleSizeUom"," "
" "," "," "," "," ","Bulk Particle Substrate"," Particle Substrate","820"," "," "," "," ","Y","Y"," "," "," ","Characters","List"," ","Bulk.bulkParticleSubstrate"," "
" "," "," "," "," ","Bulk Pore Size"," Pore Size","830"," ","Y","Y"," ","Y"," "," "," "," ","Interger","List"," ","Bulk.bulkPoreSize"," "
" "," "," "," "," ","Bulk Pore Size UOM"," ","831"," "," "," "," ","Y"," "," "," "," ","Characters","List"," ","Bulk.bulkPoreSizeUom"," "
" "," "," "," "," ","Bulk QC Tested"," QC Tested","890","Y"," "," "," ","Y","Y"," "," "," ","Characters","Multiselect"," ","Bulk.bulkQcTested"," "
" "," "," "," "," ","Bulk Silanol Activity"," Silanol Activity","910"," "," "," "," ","Y","Y"," "," "," ","Characters","List"," ","Bulk.bulkSilanolActivity"," "
" "," "," "," "," ","Bulk Surface Area"," Surface Area","920"," "," "," "," ","Y"," "," "," "," ","Interger","List"," ","Bulk.bulkSurfaceArea"," "
" "," "," "," "," ","Bulk Particle Technology"," Particle Technology","930"," ","Y","Y"," ","Y","Y"," "," "," ","Characters","List"," ","Bulk.bulkParticleTechnology"," "
" "," "," "," "," ","Bulk USP Classification"," USP Classification","940"," "," "," "," ","Y"," "," "," "," ","Characters","List"," ","Bulk.bulkUspClassification"," "
" "," "," "," "," ","Bulk pH Range Min"," pH Range","950"," "," "," "," ","Y"," "," "," "," ","Interger","List","User will enter a Min and a Max pH range.  Front end needs to see result listed as a concatenated value. Example: pH Min = 2pH Max = 7pH UOM = pH Customer sees 2 – 7 pH ","Bulk.bulkPhRangeMin"," "
" "," "," "," "," ","Bulk pH Range Max"," pH Range","951"," "," "," "," ","Y"," "," "," "," ","Interger","List","User will enter a Min and a Max pH range.  Front end needs to see result listed as a concatenated value. Example: pH Min = 2pH Max = 7pH UOM = pH Customer sees 2 – 7 pH ","Bulk.bulkPhRangeMax"," "
" "," "," "," "," ","Bulk pH Range UOM"," ","952"," "," "," "," ","Y"," "," "," "," ","Characters","List","User will enter a Min and a Max pH range.  Front end needs to see result listed as a concatenated value. Example: pH Min = 2pH Max = 7pH UOM = pH Customer sees 2 – 7 pH ","Bulk.bulkPhRangeUom"," "
" "," "," "," "," ","Bulk Technique"," Technique","960","Y"," "," "," ","Y","Y"," "," "," ","Characters","Multiselect"," ","Bulk.bulkTechnique"," "
" "," "," "," "," "," "," "," "," "," "," "," "," "," "," "," "," "," "," "," "," "," "
" "," ","Vials"," "," "," "," "," "," "," "," "," "," "," "," "," "," "," "," "," "," "," "
" "," "," "," "," ","Vials Certified","Certified","1010"," ","Y","Y"," ","Y","Y"," "," "," ","Characters","List"," ","Vial.vialsCertified"," "
" "," "," "," "," ","Vials Closure Type","Closure Type","1020"," ","Y","Y"," ","Y","Y"," "," "," ","Characters","List"," ","Vial.vialsClosureType"," "
" "," "," "," "," ","Vials Color","Color","1030"," ","Y","Y"," ","Y","Y"," "," "," ","Characters","List"," ","Vial.vialsColor"," "
" "," "," "," "," ","Vials Dimensions","Dimensions","1040"," ","Y","Y"," ","Y"," "," "," "," ","Characters","List"," ","Vial.vialsDimensions"," "
" "," "," "," "," ","Vials Format","Format ","1050"," ","Y","Y"," ","Y","Y"," "," "," ","Characters","List"," ","Vial.vialsFormat"," "
" "," "," "," "," ","Vials Material","Material ","1060"," "," "," "," ","Y","Y"," "," "," ","Characters","List"," ","Vial.vialsMaterial"," "
" "," "," "," "," ","Vials Septa Type","Septa Type","1070"," "," "," "," ","Y","Y"," "," "," ","Characters","List"," ","Vial.vialsSeptaType"," "
" "," "," "," "," ","Vials Volume Capacity","Volume Capacity","1080"," ","Y","Y"," ","Y"," "," "," "," ","Interger","List"," ","Vial.vialsVolumeCapacity"," "
" "," "," "," "," ","Vials Volume Capacity UOM","Volume Capacity OUM","1081"," ","Y","Y"," ","Y"," "," "," "," ","Characters","List"," ","Vial.vialsVolumeCapacityUom"," "
" "," "," "," "," ","Vials Type","Type","1090"," ","Y","Y"," ","Y","Y"," "," "," ","Characters","List"," ","Vial.vialsType"," "
" "," "," "," "," ","Vials Includes","Includes ","1110"," "," "," "," ","Y","Y"," "," "," ","Characters","List"," ","Vial.vialsIncludes"," "
" "," "," "," "," ","Vials Preassembled ","Preassembled ","1120"," "," "," "," ","Y","Y"," "," "," ","Boolean","List","Values should be Yes or No.AEM should display either value ","Vial.vialsPreassembled"," "
" "," "," "," "," "," "," "," "," "," "," "," "," "," "," "," "," "," "," "," "," "," "
" "," ","Plates"," "," "," "," "," "," "," "," "," "," "," "," "," "," "," "," "," "," "," "
" "," "," "," "," ","Plate Number of Wells","Number of Wells","1210"," ","Y","Y"," ","Y"," "," "," "," ","Interger","List"," ","Plate.plateNumberWells"," "
" "," "," "," "," ","Plate Bottom Shape","Bottom Shape","1220"," "," "," "," ","Y","Y"," "," "," ","Character","List"," ","Plate.plateBottomShape"," "
" "," "," "," "," ","Plate Well Shape","Well Shape","1230"," "," "," "," ","Y","Y"," "," "," ","Character","List"," ","Plate.plateWellShape"," "
" "," "," "," "," ","Plate Well Volume UOM","Well Volume UOM","1241"," "," "," "," ","Y"," "," "," "," ","Character","List"," ","Plate.plateWellVolumeUom"," "
" "," "," "," "," ","Plate Well Volume","Well Volume","1240"," "," "," "," ","Y"," "," "," "," ","Interger","List"," ","Plate.plateWellVolume"," "
" "," "," "," "," ","Plate Material","Material ","1250"," "," "," "," ","Y","Y"," "," "," ","Character","List"," ","Plate.plateMaterial"," "
" "," "," "," "," ","Plate Format","Format","1260"," ","Y","Y"," ","Y","Y"," "," "," ","Character","List"," ","Plate.plateFormat"," "
" "," "," "," "," "," "," "," "," "," "," "," "," "," "," "," "," "," "," "," "," "," "
" "," ","Vial & Plate Accessories"," "," "," "," "," "," "," "," "," "," "," "," "," "," "," "," "," "," "," "
" "," "," "," "," ","Vial & Plate Accessories Type","Type","1310"," ","Y","Y"," ","Y","Y"," "," "," ","Character","List"," ","VialPlateAccessory.vialPlateAccessoryType"," "
" "," "," "," "," "," "," "," "," "," "," "," "," "," "," "," "," "," "," "," "," "," "
" "," ","Containers"," "," "," "," "," "," "," "," "," "," "," "," "," "," "," "," "," "," "," "
" "," "," "," "," ","Containers Size","Size","1410"," ","Y","Y"," ","Y"," "," "," "," ","Character","List"," ","Container.containerSize"," "
" "," "," "," "," ","Containers Color","Color","1420"," "," "," "," ","Y","Y"," "," "," ","Character","List"," ","Container.containerColor"," "
" "," "," "," "," ","Containers Certified","Certified","1430"," ","Y","Y"," ","Y","Y"," "," "," ","Character","List"," ","Container.containerCertified"," "
" "," "," "," "," ","Containers Material","Material ","1440"," "," "," "," ","Y","Y"," "," "," ","Character","List"," ","Container.containerMaterial"," "
" "," "," "," "," ","Containers Volume Capacity","Volume Capacity","1450"," ","Y","Y"," "," "," "," "," "," ","Character","List"," ","Container.containerVolumeCapacity"," "
" "," "," "," "," "," "," "," "," "," "," "," "," "," "," "," "," "," "," "," "," "," "
" "," ","Filters"," "," "," "," "," "," "," "," "," ","Y"," "," "," "," "," "," "," "," "," "
" "," "," "," "," ","Filter Diameter","Diameter","1510"," ","Y","Y"," ","Y"," "," "," "," ","Interger","List"," ","Filter.filterDiameter"," "
" "," "," "," "," ","Filter Diameter UOM","Diameter","1511"," "," "," "," ","Y"," "," "," "," ","Character","List"," ","Filter.filterDiamaterUom"," "
" "," "," "," "," ","Filter Format","Format","1520"," ","Y","Y"," ","Y","Y"," "," "," ","Character","List"," ","Filter.filterFormat"," "
" "," "," "," "," ","Filter Hold-up Volume","Hold-up Volume","1530"," ","Y","Y"," ","Y"," "," "," "," ","Interger","List"," ","Filter.filterHoldupVolume"," "
" "," "," "," "," ","Filter Hold-up Volume UOM","Hold-up Volume","1531"," "," "," "," ","Y"," "," "," "," ","Character","List"," ","Filter.filterHoldupVolumeUom"," "
" "," "," "," "," ","Filter Housing Material","Housing Material","1540"," "," "," "," ","Y","Y"," "," "," ","Character","List"," ","Filter.filterHousingMaterial"," "
" "," "," "," "," ","Filter Pore Size","Pore Size","1550"," ","Y","Y"," ","Y","Y"," "," "," ","Interger","List"," ","Filter.filterPoreSize"," "
" "," "," "," "," ","Filter Pore Size UOM","Pore Size","1551"," "," "," "," "," "," "," "," "," ","Character"," "," ","Filter.filterPoreSizeUom"," "
" "," "," "," "," ","Filter Sample Volume","Sample Volume","1560"," ","Y","Y"," ","Y"," "," "," "," ","Interger","List"," ","Filter.filterSampleVolume"," "
" "," "," "," "," ","Filter Sample Volume UOM","Sample Volume","1561"," "," "," "," ","Y"," "," "," "," ","Character","List"," ","Filter.filterSampleVolumeUom"," "
" "," "," "," "," ","Filter Separation Mode","Separation Mode","1570"," ","Y","Y"," ","Y","Y"," "," "," ","Character","List"," ","Filter.filterSeparationModel"," "
" "," "," "," "," ","Filter Filter Type","Filter Type","1580"," ","Y","Y"," ","Y","Y"," "," "," ","Character","List"," ","Filter.filterType"," "
" "," "," "," "," "," "," "," "," "," "," "," "," "," "," "," "," "," "," "," "," "," "
" "," ","SPE"," "," "," "," "," "," "," "," "," "," "," "," "," "," "," "," "," "," "," "
" "," "," "," "," ","SPE Carbon Load","Carbon Load","1610"," "," "," "," ","Y"," "," "," "," ","Interger","List"," ","SPECarbonLoad"," "
" "," "," "," "," ","SPE Carbon Load UOM"," ","1611"," "," "," "," "," "," "," "," "," "," "," "," "," "," "
" "," "," "," "," ","SPE Chemistry","Chemistry","1620"," ","Y","Y"," ","Y"," "," "," "," ","Character","List"," ","SPEChemistry"," "
" "," "," "," "," ","SPE Endcap","Endcapped","1630"," "," "," "," ","Y","Y"," "," "," ","Character","List"," ","SPEEndcap"," "
" "," "," "," "," ","SPE Format","Format","1640"," ","Y","Y"," ","Y","Y"," "," "," ","Character","List"," ","SPEFormat"," "
" "," "," "," "," ","SPE Ion Exchange Capacity","Ion Exchange Capacity","1650"," "," "," "," ","Y"," "," "," "," ","Interger","List"," ","SPEIonExchCapacity"," "
" "," "," "," "," ","SPE Ion Exchange Capacity UOM"," ","1651"," "," "," "," ","Y"," "," "," "," ","Character","List"," "," "," "
" "," "," "," "," ","SPE Mass Spec Compatibility","Mass Spec Compatibility","1660"," "," "," "," ","Y","Y"," "," "," ","Boolean","List","There are some attributes that only have one value.Example: Attribute: Standards QuantitativeValue: YesIf Yes is selected then that value will show.There is no “No” value.  If Value is left blank then this attribute would not show on website. ","SPEMassSpecCompatibility"," "
" "," "," "," "," ","SPE Mode","Mode","1670"," ","Y","Y"," ","Y","Y"," "," "," ","Character","List"," ","SPEMode"," "
" "," "," "," "," ","SPE Particle Size","Particle Size","1680"," ","Y","Y"," ","Y"," "," "," "," ","Interger","List"," ","SPEParticleSize"," "
" "," "," "," "," ","SPE Particle Size UOM"," ","1681"," "," "," "," "," "," "," "," "," ","Character","List"," "," "," "
" "," "," "," "," ","SPE Pore Size","Pore Size","1690"," "," "," "," ","Y"," "," "," "," ","Interger","List"," ","SPEPoreSize"," "
" "," "," "," "," ","SPE Pore Size UOM"," ","1691"," "," "," "," "," "," "," "," "," ","Character","List"," "," "," "
" "," "," "," "," ","SPE Sorbent Substrate","Sorbent Substrate","1710"," ","Y","Y"," ","Y","Y"," "," "," ","Character","List"," ","SPESorbentSubstrate"," "
" "," "," "," "," ","SPE Sorbent Weight","Sorbent Weight","1720"," ","Y","Y"," ","Y"," "," "," "," ","Interger","List"," ","SPESorbentWeight"," "
" "," "," "," "," ","SPE Sorbent Weight UOM"," ","1721"," "," "," "," "," "," "," "," "," ","Character","List"," "," "," "
" "," "," "," "," ","SPE Water Wettable","Water Wettable","1730"," "," "," "," ","Y","Y"," "," "," ","Boolean","List","Values should be Yes or No.AEM should display either value ","SPEWaterWettable"," "
" "," "," "," "," ","SPE pH Range Min","SPE pH Range","1740"," ","Y","Y"," ","Y"," "," "," "," ","Interger","List","User will enter a Min and a Max pH range.  Front end needs to see result listed as a concatenated value. Example: pH Min = 2pH Max = 7pH UOM = pH Customer sees 2 – 7 pH ","SPEpHRangeMin"," "
" "," "," "," "," ","SPE pH Range Max","SPE pH Range","1741"," ","Y","Y"," "," "," "," "," "," ","Interger","List","User will enter a Min and a Max pH range.  Front end needs to see result listed as a concatenated value. Example: pH Min = 2pH Max = 7pH UOM = pH Customer sees 2 – 7 pH ","SPEpHRangeMax"," "
" "," "," "," "," ","SPE pH Range UOM"," ","1742"," "," "," "," "," "," "," "," "," ","Character","List","User will enter a Min and a Max pH range.  Front end needs to see result listed as a concatenated value. Example: pH Min = 2pH Max = 7pH UOM = pH Customer sees 2 – 7 pH "," "," "
" "," "," "," "," ","SPE Material","Material","1750"," "," "," "," ","Y","Y"," "," "," ","Character","List"," ","SPEMaterial"," "
" "," "," "," "," "," "," "," "," "," "," "," "," "," "," "," "," "," "," "," "," "," "
" "," "," ","SPE Plates"," "," "," "," "," "," "," "," "," "," "," "," "," "," "," "," "," "," "
" "," "," "," "," ","SPE Plates Number of Wells","Number of Wells","1810"," ","Y","Y"," ","Y"," "," "," "," ","Interger","List"," ","SPEPlate.spePlateNumberWells"," "
" "," "," "," "," "," "," "," "," "," "," "," "," "," "," "," "," "," "," "," "," "," "
" "," "," ","SPE Cartridges"," "," "," "," "," "," "," "," "," "," "," "," "," "," "," "," "," "," "
" "," "," "," "," ","SPE Cartridges Barrel Size","Barrel Size","1910"," ","Y","Y"," ","Y"," "," "," "," ","Interger","List"," ","SPECartridge.speCartridgeBarrelSize"," "
" "," "," "," "," ","SPE Cartridges Barrel Size UOM"," ","1911"," "," "," "," ","Y"," "," "," "," ","Character","List"," ","SPECartridge.speCartridgeBarrelSizeUom"," "
" "," "," "," "," ","SPE Cartridges Inside Diameter","Inside Diameter","1920"," "," "," "," ","Y"," "," "," "," ","Interger","List"," ","SPECartridge.speCartridgeInsideDiameter"," "
" "," "," "," "," ","SPE Cartridges Inside Diameter UOM"," ","1921"," "," "," "," ","Y"," "," "," "," ","Character","List"," ","SPECartridge.speCartridgeInsideDiameterUom"," "
" "," "," "," "," ","SPE Cartridges Length","Length","1930"," ","Y","Y"," ","Y"," "," "," "," ","Interger","List"," ","SPECartridge.speCartridgeLength"," "
" "," "," "," "," ","SPE Cartridges Length UOM"," ","1931"," "," "," "," ","Y"," "," "," "," ","Character","List"," ","SPECartridge.speCartridgeLengthUom"," "
" "," "," "," "," ","SPE Cartridges Hold up volume","Hold up volume","1940"," "," "," "," ","Y"," "," "," "," ","Interger","List"," ","SPECartridge.speCartridgeHoldupVolume"," "
" "," "," "," "," ","SPE Cartridges Hold up volume UOM"," ","1941"," "," "," "," ","Y"," "," "," "," ","Character","List"," ","SPECartridge.speCartridgeHoldupVolumeUom"," "
" "," "," "," "," "," "," "," "," "," "," "," "," "," "," "," "," "," "," "," "," "," "
" "," ","Quechers"," "," "," "," "," "," "," "," "," "," "," "," "," "," "," "," "," "," "," "
" "," "," "," "," ","Quechers Packaging","Packaging","2010"," ","Y","Y"," ","Y","Y"," "," "," ","Character","List"," ","Quecher.quecherPackaging"," "
" "," "," "," "," ","Quechers Technique","Technique","2020","Y","Y","Y"," ","Y","Y"," "," "," ","Character","Multiselect"," ","Quecher.quecherTechnique"," "
" "," "," "," "," ","Quechers Tube Size","Tube Size","2030"," ","Y","Y"," ","Y"," "," "," "," ","Interger","List"," ","Quecher.quecherTubeSize"," "
" "," "," "," "," ","Quechers Tube Size UOM","Tube Size","2031"," "," "," "," ","Y"," "," "," "," ","Character","List"," ","Quecher.quecherTubeSizeUom"," "
" "," "," "," "," ","Quechers Methods","Methods","2040"," ","Y","Y"," ","Y","Y"," "," "," ","Character","List"," ","Quecher.quecherMethods"," "
" "," "," "," "," "," "," "," "," "," "," "," "," "," "," "," "," "," "," "," "," "," "
" "," ","Standards"," "," "," "," "," "," "," "," "," "," "," "," "," "," "," "," "," "," "," "
" "," "," "," "," ","Standards Separation Mode","Separation Mode","2110"," ","Y","Y"," ","Y","Y"," "," "," ","Character","List"," ","Standard.standardsSeparationMode"," "
" "," "," "," "," ","Standards Detection Method","Detection Method","2120","Y","Y","Y"," ","Y","Y"," "," "," ","Character","Multiselect"," ","Standard.standardsDetectionMethod"," "
" "," "," "," "," ","Standards Formulation","Formulation","2130","Y"," "," "," ","Y","Y"," "," "," ","Character","List"," ","Standard.standardsFormulation"," "
" "," "," "," "," ","Standards Storage","Storage","2140"," "," "," "," ","Y","Y"," "," "," ","Character","List"," ","Standard.standardsStorage"," "
" "," "," "," "," ","Standards System Type","System Type","2150","Y","Y","Y"," ","Y","Y"," "," "," ","Character","Multiselect"," ","Standard.standardsSystemType"," "
" "," "," "," "," ","Standards Instrument","Instrument","2160","Y","Y","Y"," ","Y","Y"," "," "," ","Character","Multiselect"," ","Standard.standardsInstrument"," "
" "," "," "," "," ","Standards Quantitative ","Quantitative ","2170"," "," "," "," ","Y","Y"," "," "," ","Boolean","List","There are some attributes that only have one value.Example: Attribute: Standards QuantitativeValue: YesIf Yes is selected then that value will show.There is no “No” value.  If Value is left blank then this attribute would not show on website. ","Standard.standardsQuantitative"," "
" "," "," "," "," ","Standards Source","Source","2180"," "," "," "," ","Y","Y"," "," "," ","Character","List"," ","Standard.standardsSource"," "
" "," "," "," "," ","Standards Shelf Life","Shelf Life","2190"," "," "," "," ","Y","Y"," "," "," ","Character","List"," ","Standard.standardsShelfLife"," "
" "," "," "," "," ","Standards Shelf life upon reconstitution","Shelf life upon reconstitution","2210"," "," "," "," ","Y","Y"," "," "," ","Character","List"," ","Standard.standardsShelfLifeUponReconstitution"," "
" "," "," "," "," ","Standards Traceability","Tracibility","2220"," "," "," "," ","Y","Y"," "," "," ","Character","List"," ","Standard.standardsTraceability"," "
" "," "," "," "," ","Standards Shipping","Shipping","2230"," "," "," "," ","Y","Y"," "," "," ","Character","List"," ","Standard.standardsShipping"," "
" "," "," "," "," ","Standards Tolarence","Tolarence","2240"," "," "," "," ","Y","Y"," "," "," ","Character","List"," ","Standard.standardsTolerance"," "
" "," "," "," "," ","Standards Volume","Volume","2250"," "," "," "," ","Y","Y"," "," "," ","Character","List"," ","Standard.standardsVolume"," "
" "," "," "," "," ","Standards Concentration","Concentration","2260"," "," "," "," ","Y","Y"," "," "," ","Character","List"," ","Standard.standardsConcentration"," "
" "," "," "," "," ","Standards Mass","Mass","2270"," "," "," "," ","Y","Y"," "," "," ","Character","List"," ","Standard.standardsMass"," "
" "," "," "," "," ","Standards Matrix","Matrix","2280"," ","Y","Y"," ","Y","Y"," "," "," ","Character","List"," ","Standard.standardsMatrix"," "
" "," "," "," "," ","Standards Type","Type","2290"," ","Y","Y"," ","Y","Y"," "," "," ","Character","List"," ","Standard.standardsType"," "
" "," "," "," "," ","Standards Analyte","Analyte","2310","Y","Y","Y"," ","Y"," "," "," "," ","Character","Multiselect"," ","Standard.standardsAnalyte"," "
" "," "," "," "," ","Standards EPA Method","EPA Method","2320","Y","Y"," "," ","Y"," "," "," "," ","Character","Multiselect"," ","Standard.standardsEPAMethod"," "
" "," "," "," "," ","Standards Container Type","Container Type","2330"," "," "," "," ","Y","Y"," "," "," ","Character","List"," ","Standard.standardsContainerType"," "
" "," "," "," "," "," "," "," "," "," "," "," "," "," "," "," "," "," "," "," "," "," "
" "," ","Lab Equipment"," "," "," "," "," "," "," "," "," "," "," "," "," "," "," "," "," "," "," "
" "," "," "," "," ","Lab Equipment Type","Type","2410"," ","Y","Y"," ","Y","Y"," "," "," ","Character","List"," ","LabEquipment.labEquipmentType"," "
" "," "," "," "," ","Lab Equipment Manifold Type","Manifold Type","2420"," ","Y","y"," ","Y","Y"," "," "," ","Character","List"," ","LabEquipment.labEquipmentManifoldType"," "
" "," "," "," "," ","Lab Equipment Format Type","Format Type","2430"," ","Y","y"," ","Y","Y"," "," "," ","Character","List"," ","LabEquipment.labEquipmentFormatType"," "
" "," "," "," "," ","Lab Equipment Operation Requrements","Operation Requrements","2440"," ","Y","y"," ","Y","Y"," "," "," ","Character","List"," ","LabEquipment.labEquipmentOperationRequirements"," "
" "," "," "," "," "," "," "," "," "," "," "," "," "," "," "," "," "," "," "," "," "," "
" "," ","Application Kits"," "," "," "," "," "," "," "," "," "," "," "," "," "," "," "," "," "," "," "
" "," "," "," "," ","Application Kits Number of Analysis","Number of Analysis","2510"," "," "," "," ","Y"," "," "," "," ","Character","List"," ","ApplicationKit.applicationKitNumberOfAnalysis"," "
" "," "," "," "," ","Application Kits Type","Type","2520","Y","Y","Y"," ","Y","Y"," "," "," ","Character","Multiselect"," ","ApplicationKit.applicationKitType"," "
" "," "," "," "," ","Application Kits Packages per kit","Packages per kit","2530"," "," "," "," ","Y"," "," "," "," ","Interger","List"," ","ApplicationKit.applicationKitPackagesPerKit"," "
" "," "," "," "," ","Application Kits Separation Mode","Separation Mode","2540"," ","Y"," "," ","Y","Y"," "," "," ","Character","List"," ","ApplicationKit.applicationKitSeparationMode"," "
" "," "," "," "," ","Application Kits Detection Method","Detection Method","2550","Y","Y","Y"," ","Y","Y"," "," "," ","Character","Multiselect"," ","ApplicationKit.applicationKitDetectionMethod"," "
" "," "," "," "," ","Application Kits Storage","Storage","2560"," "," "," "," ","Y","Y"," "," "," ","Character","List"," ","ApplicationKit.applicationKitStorage"," "
" "," "," "," "," ","Application Kits System Type","System Type","2570","Y","Y","Y"," ","Y","Y"," "," "," ","Character","Multiselect"," ","ApplicationKit.applicationKitSystemType"," "
" "," "," "," "," ","Application Kits Shelf Life","Shelf Life","2580"," "," "," "," ","Y","Y"," "," "," ","Character","List"," ","ApplicationKit.applicationKitShelfLife"," "
" "," "," "," "," ","Application Kits Shipping","Shipping","2590"," "," "," "," ","Y","Y"," "," "," ","Character","List"," ","ApplicationKit.applicationKitShipping"," "
" "," "," "," "," ","Application Kits Instrument ","Instrument ","2610","Y","Y","Y"," ","Y"," "," "," "," ","Character","Multiselect"," ","ApplicationKit.applicationKitInstrument"," "
" "," "," "," "," ","Application Kits Replacement Schedule","Replacement Schedule","2620"," "," "," "," ","Y","Y"," "," "," ","Character","List"," ","ApplicationKit.applicationKitReplacementSchedule"," "
" "," "," "," "," "," "," "," "," "," "," "," "," "," "," "," "," "," "," "," "," "," "
" "," ","Small Components"," "," "," "," "," "," "," "," "," "," "," "," "," "," "," "," "," "," "," "
" "," "," "," "," ","Small Components Type","Type","2710","Y","Y","Y"," ","Y","Y"," "," ","N","Character","Multiselect"," ","SmallComponent.smallComponentType"," "
" "," "," "," "," ","Small Components System","System","2720","Y","Y","Y"," ","Y"," "," "," "," ","Character","Multiselect"," ","SmallComponent.smallComponentSystem"," "
" "," "," "," "," ","Small Components Instrument ","Instrument ","2730","Y","Y","Y"," ","Y"," "," "," "," ","Character","Multiselect"," ","SmallComponent.smallComponentInstrument"," "
" "," "," "," "," ","Small Components Module","Module","2740","Y","Y","Y"," "," "," "," "," "," ","Character","Multiselect"," ","SmallComponent.smallComponentModule"," "
" "," "," "," "," ","Small Components Material","Material","2750"," ","Y","Y"," ","Y","Y"," "," "," ","Character","List"," ","SmallComponent.smallComponentMaterial"," "
" "," "," "," "," ","Small Components Internal Diameter","Internal Diameter","2760"," ","Y","Y"," ","Y"," "," "," "," ","Interger","Input Box"," ","SmallComponent.smallComponentDiameter"," "
" "," "," "," "," ","Small Components Internal Diameter UOM"," ","2761"," "," "," "," "," "," "," "," "," ","Character","List"," ","SmallComponent.smallComponentDiameterUom"," "
" "," "," "," "," ","Small Components Internal Diameter UOM Display"," ","2762"," "," "," "," "," "," "," "," "," ","Character","List","See Notes","SmallComponent.smallComponentDiameterDisplayUom"," "
" "," "," "," "," ","Small Components External Diameter","External Diameter","2770"," ","Y","Y"," ","Y"," "," "," "," ","Interger","Input Box"," ","SmallComponent.smallComponentExternalDiameter"," "
" "," "," "," "," ","Small Components External Diameter UOM"," ","2771"," "," "," "," "," "," "," "," "," ","Character"," "," ","SmallComponent.smallComponentExternalDiameterUom"," "
" "," "," "," "," ","Small Components External Diameter UOM Display"," ","2772"," "," "," "," "," "," "," "," "," ","Character"," ","See Notes","SmallComponent.smallComponentExternalDiameterDisplayUom"
" "," "," "," "," ","Small Components Length","Length","2780"," ","Y","Y"," ","Y"," "," "," "," ","Interger","Input Box"," ","SmallComponent.smallComponentLength"," "
" "," "," "," "," ","Small Components Length UOM"," ","2781"," "," "," "," "," "," "," "," "," ","Character","List"," ","SmallComponent.smallComponentLengthUom"," "
" "," "," "," "," ","Small Components Length UOM Display"," ","2782"," "," "," "," "," "," "," "," "," ","Character","List","See Notes","SmallComponent.smallComponentLengthDisplayUom"," "
" "," "," "," "," ","Small Components Height","Height","2790"," ","Y","Y"," ","Y"," "," "," "," ","Interger","Input Box"," ","SmallComponent.smallComponentHeight"," "
" "," "," "," "," ","Small Components Height UOM"," ","2791"," "," "," "," "," "," "," "," "," ","Character","List"," ","SmallComponent.smallComponentHeightUom"," "
" "," "," "," "," ","Small Components Depth","Depth","2810"," ","Y","Y"," ","Y"," "," "," "," ","Interger","Input Box"," ","SmallComponent.smallComponentDepth"," "
" "," "," "," "," ","Small Components Depth UOM"," ","2811"," "," "," "," "," "," "," "," "," ","Character","List"," ","SmallComponent.smallComponentDepthUom"," "
" "," "," "," "," ","Small Components Thread Type","Thread Type","2820"," ","Y","Y"," ","Y"," "," "," "," ","Character","List"," ","SmallComponent.smallComponentThreadType"," "
" "," "," "," "," ","Small Components Head Type","Head Type","2830"," ","Y","Y"," ","Y"," "," "," "," ","Character","List"," ","SmallComponent.smallComponentHeadType"," "
" "," "," "," "," ","Small Components Thickness","Thickness","2840"," ","Y","Y"," ","Y"," "," "," "," ","Interger","List"," ","SmallComponent.smallComponentThickness"," "
" "," "," "," "," ","Small Components Thickness UOM"," ","2841"," "," "," "," "," "," "," "," "," ","Character","List"," ","SmallComponent.smallComponentThicknessUom"," "
" "," "," "," "," ","Small Components Volume","Volume","2850"," ","Y","Y"," ","Y"," "," "," "," ","Interger","List"," ","SmallComponent.smallComponentVolume"," "
" "," "," "," "," ","Small Components Volume UOM"," ","2851"," "," "," "," "," "," "," "," "," ","Character","List"," ","SmallComponent.smallComponentVolumeUom"," "
" "," "," "," "," ","Small Components Color","Color","2860"," ","Y","Y"," ","Y"," "," "," "," ","Character","List"," ","SmallComponent.smallComponentColor"," "
" "," "," "," "," ","Small Components Current ","Current ","2870"," ","Y","Y"," ","Y"," "," "," "," ","Interger","List"," ","SmallComponent.smallComponentCurrent"," "
" "," "," "," "," ","Small Components Current UOM"," ","2871"," "," "," "," "," "," "," "," "," ","Character","List"," ","SmallComponent.smallComponentCurrentUom"," "
" "," "," "," "," ","Small Components Voltage","Voltage","2880"," ","Y","Y"," ","Y"," "," "," "," ","Interger","List"," ","SmallComponent.smallComponentVoltage"," "
" "," "," "," "," ","Small Components Voltage UOM"," ","2881"," "," "," "," "," "," "," "," "," ","Character","List"," ","SmallComponent.smallComponentVoltageUom"," "
" "," "," "," "," ","Small Components Replacement Schedule","Replacement Schedule","2890"," "," "," "," ","Y"," "," "," "," ","Character","List"," ","SmallComponent.smallComponentReplacementSchedule"," "
" "," "," "," "," "," "," "," "," "," "," "," "," "," "," "," "," "," "," "," "," "," "
" "," ","Sub Assemblies"," "," "," "," "," "," "," "," "," "," "," "," "," "," "," "," "," "," "," "
" "," "," "," "," "," "," "," "," "," "," "," "," "," "," "," ","Y"," "," "," "," "," "
" "," "," "," "," ","Sub Assemblies Type","Type","2910","Y","Y","Y"," ","Y"," "," "," "," ","Character","Multiselect"," ","Subassembly.subAssembliesType"," "
" "," "," "," "," ","Sub Assemblies System","System","2920","Y","Y","Y"," ","Y"," "," "," "," ","Character","Multiselect"," ","Subassembly.subAssembliesSystem"," "
" "," "," "," "," ","Sub Assemblies Instrument","Instrument","2930","Y","Y","Y"," ","Y"," "," "," "," ","Character","Multiselect"," ","Subassembly.subAssembliesInstrument"," "
" "," "," "," "," ","Sub Assemblies Module","Module","2940","Y","Y","Y"," "," "," "," "," "," ","Character","Multiselect"," ","Subassembly.subAssembliesModule"," "
" "," "," "," "," ","Sub Assemblies Cable Type","Cable Type","2950","Y","Y","Y"," ","Y"," "," "," "," ","Character","Multiselect"," ","Subassembly.subAssembliesCableType"," "
" "," "," "," "," ","Sub Assemblies Vacuum Pump Type","Vacuum Pump Type","2960"," ","Y","Y"," ","Y"," "," "," "," ","Character","List"," ","Subassembly.subAssembliesVacuumPumpType"," "
" "," "," "," "," ","Sub Assemblies Length","Length","2970"," ","Y","Y"," ","Y"," "," "," "," ","Character","List"," ","Subassembly.subAssembliesLength"," "
" "," "," "," "," ","Sub Assemblies Replacement Schedule","Replacement Schedule","2980"," "," "," "," ","Y"," "," "," "," ","Character","List"," ","Subassembly.subAssembliesReplacementSchedule"," "
" "," "," "," "," "," "," "," "," "," "," "," "," "," "," "," "," "," "," "," "," "," "
" "," "," "," "," "," "," "," "," "," "," "," "," "," "," "," "," "," "," "," "," "," "
" ","Primers"," "," "," "," "," "," "," "," "," "," "," "," "," "," "," "," "," "," "," "," "
" "," "," "," "," ","ISBN-10","ISBN-10","3010"," ","Y"," "," ","Y"," "," "," "," ","Character","Input field"," ","Primer.primerIsbn10"," "
" "," "," "," "," ","ISBN-13","ISBN-13","3020"," ","Y"," "," ","Y"," "," "," "," ","Character","Input field"," ","Primer.primerIsbn13"," "
" "," "," "," "," ","Topic","Topic","3030"," ","Y","Y"," ","Y","Y"," "," "," ","Character","List"," ","Primer.primerTopic"," "
" "," "," "," "," ","Number of Pages","Number of Pages","3040"," "," "," "," ","Y"," "," "," "," ","Interger","Input field"," ","Primer.primerNumberOfPages"," "
" "," "," "," "," ","Author","Author","3050"," ","Y"," "," ","Y"," "," "," "," ","Character","Input field"," ","Primer.primerAuthor"," "
" "," "," "," "," ","Edition","Edition","3060"," "," "," "," ","Y"," "," "," "," ","Character","Input field"," ","Primer.primerEdition"," "
" "," "," "," "," ","Publisher","Publisher","3070"," ","Y"," "," ","Y"," "," "," "," ","Character","List"," ","Primer.primerPublisher"," "
" "," "," "," "," ","Language ","Language ","3080"," "," "," "," ","Y"," "," "," "," ","Character","List"," ","Primer.primerLanguage"," "
" "," "," "," "," ","Publish Date","Publish Date","3090"," "," "," "," ","Y"," "," "," "," ","Interger","List"," ","Primer.primerPublishDate"," "
" "," "," "," "," "," "," "," "," "," "," "," "," "," "," "," "," "," "," "," "," "," "
" ","Software"," "," "," "," "," "," "," "," "," "," "," "," "," "," "," "," "," "," "," "," "
" "," "," "," "," ","Software type","Software type","3110"," ","Y","Y"," ","Y","Y"," "," "," ","Character","List"," ","Software.softwareType"," "
" "," "," "," "," ","Product Compatibility ","Product Compatibility ","3120","Y"," "," "," ","Y","Y"," "," "," ","Character","Multiselect"," ","Software.softwareProductCompatibility"," "
" "," "," "," "," ","Automation Platform","Automation Platform","3130"," ","Y","Y"," ","Y"," "," "," "," ","Character","List"," ","Software.softwareAutomationPlatform"," "
" "," "," "," "," ","Delivery Method","Delivery Method","3140"," "," "," "," ","Y","Y"," "," "," ","Character","List"," ","Software.softwareDeliveryMethod"," "
" "," "," "," "," ","OS Version","OS Version","3150","Y"," "," "," ","Y"," "," "," "," ","Character","Multiselect"," ","Software.softwareOsVersion"," "
" "," "," "," "," ","Quantity","Quantity","3160"," "," "," "," ","Y"," "," "," "," ","Character","List"," ","Software.softwareQuantity"," "
